ID;Experimentateur;Sexe;Age;CondVerbalisation;CondFiltrage;BR;BR_P;Hit;Hit_P;FR;FR_P;Omissions;Omissions_P;Rejets;Rejets_P;TR;MeanTR;ThurstoneScore;ThurstoneErreurs;ThurstoneTermine;Thurstone2minScore;Thurstone2minErreurs;FluenceCouleurs;CouleursErreurs;CouleursRepetitions;FluenceAnimaux;AnimauxErreurs;AnimauxRepetitions;FluenceFruits;FruitsErreurs;FruitsRepetitions;FluenceVilles;VillesErreurs;VillesRepetitions;TotalFluences;Vividness_YO;Vividness_YF;Vividness_Total;Vividness_Personne;Correspondance_Descr;Durée_Descr
XXXX;Lucille;F;21;Description;Filtrage passe haut;76;76;5;50;19;21,1111111111;5;50;71;78,8888888889;199,8376431465;1,9983764315;59;1;Oui;NA;NA;10;0;0;12;0;0;12;0;0;11;0;0;45;57;60;117;27;Oui;240
XXXX;Julia;F;21;Description;Filtrage passe bas;78;78;4;40;16;17,7777777778;6;60;74;82,2222222222;87,2028970718;0,8720289707;60;0;Oui;NA;NA;18;0;0;19;0;0;11;0;0;14;0;0;62;50;67;117;35;;
XXXX;Melinda;H;23;Description;Filtrage passe haut;93;93;7;70;4;4,4444444444;3;30;86;95,5555555556;173,2550392151;1,7325503922;56;4;Oui;NA;NA;16;0;0;14;0;0;14;0;0;18;0;0;62;44;NA;NA;22;Non;90
XXXX;Julia;F;21;Description;Non filtré;94;94;9;90;5;5,5555555556;1;10;85;94,4444444444;138,4766442776;1,3847664428;47;2;Non;NA;NA;12;0;0;13;0;0;14;0;0;7;0;0;46;62;66;128;36;;
XXXX;Julia;H;22;Description;Filtrage passe bas;47;47;9;90;52;57,7777777778;1;10;38;42,2222222;175,971;1,75971;43;4;Non;24;4;11;0;0;10;0;0;8;0;0;6;0;0;35;56;66;122;30;;
XXXX;Julia;F;18;Description;Non filtré;96;96;8;80;2;2,22222222;2;20;88;97,7777778;233,417;2,33417;57;2;Non;29;1;10;0;1;11;0;0;8;0;2;8;0;0;37;65;68;133;34;;
XXXX;Melinda;F;22;Absence de Description;Filtrage passe haut;79;79;6;60;17;18,8888889;4;40;73;81,1111111;295,105;2,95105;51;0;Non;27;0;10;0;1;11;0;0;8;0;0;15;0;0;44;69;75;144;34;AbsDes;AbsDes
XXXX;Melinda;F;22;Absence de Description;Filtrage passe bas;69;69;5;50;26;28,8888889;5;50;64;71,1111111;402,134;4,02134;49;1;Oui;28;NA;12;0;0;14;0;0;11;0;0;12;0;0;49;51;41;92;18;AbsDes;AbsDes
XXXX;Julia;F;24;Absence de Description;Non filtré;90;90;9;90;9;10;1;10;81;90;94,153;0,94153;52;1;Non;29;1;15;0;0;13;0;0;13;0;0;18;0;0;59;56;61;117;31;AbsDes;AbsDes
XXXX;Melinda;F;28;Description;Filtrage passe haut;87;87;6;60;9;10;4;40;81;90;117,8437898159;1,1784378982;40;2;Non;27;2;9;0;0;11;0;0;13;1;2;12;0;0;45;54;50;104;31;oui ;75
XXXX;Lucille;H;18;Description;Non filtré;77;77;6;60;19;21,1111111111;4;40;71;78,8888888889;215,4228672981;2,154228673;57;3;Oui;38;3;12;0;0;11;0;0;12;0;0;12;0;0;47;65;73;138;35;Oui;150
XXXX;Melinda;H;21;Absence de Description;Filtrage passe haut;54;54;7;70;43;47,7777777778;3;30;47;52,2222222222;403,9950282574;4,0399502826;40;0;Non;23;0;10;0;1;13;0;2;6;0;0;12;0;0;41;57;66;123;32;AbsDes;AbsDes
XXXX;Julia;F;22;Absence de Description;Filtrage passe haut;54;54;7;70;43;47,7777777778;3;30;47;52,2222222222;175,6003217697;1,7560032177;56;4;Oui;36;3;16;0;0;15;0;0;10;0;0;5;0;0;46;44;40;84;21;AbsDes;AbsDes
XXXX;Lucille;F;38;Absence de Description;Filtrage passe bas;62;62;7;70;35;38,8888888889;3;30;55;61,1111111111;177,764298439;1,7776429844;43;1;Non;23;0;9;2;0;9;0;0;6;0;0;9;0;0;33;69;NA;NA;36;AbsDes;AbsDes
XXXX;Julia;F;22;Absence de Description;Non filtré;83;83;8;80;15;16,6666666667;2;20;75;83,3333333333;129,5841939449;1,2958419394;58;2;Oui;34;2;11;0;1;11;0;1;8;0;0;8;0;0;38;30;21;51;16;AbsDes;AbsDes
XXXX;Lucille;H;21;Absence de Description;Filtrage passe bas;73;73;6;60;23;25,5555555556;4;40;67;74,4444444444;155,4434883595;1,5544348836;40;0;Non;23;0;9;0;0;6;0;0;4;0;0;10;0;0;29;62;NA;NA;30;AbsDes;AbsDes
XXXX;Lucille;F;21;Description;Filtrage passe haut;92;92;8;80;6;6,6666666667;2;20;84;93,3333333333;175,5035858154;1,7550358582;58;2;Oui;37;1;14;0;0;11;0;0;13;0;0;11;0;0;49;70;NA;NA;36;Non;105
XXXX;Lucille;F;21;Description;Filtrage passe bas;64;64;6;60;32;35,5555555556;4;40;58;64,4444444444;210,7591056824;2,1075910568;44;6;Non;30;2;11;0;0;11;0;0;12;0;0;10;0;0;44;55;NA;NA;26;Non;110
XXXX;Julia;F;18;Description;Non filtré;90;90;8;80;8;8,8888888889;2;20;82;91,1111111111;96,2198088169;0,9621980882;34;0;Non;18;0;11;0;0;9;0;0;10;0;0;13;0;0;43;67;NA;NA;32;;
XXXX;Julia;F;23;Absence de Description;Filtrage passe haut;89;89;7;70;8;8,8888888889;3;30;82;91,1111111111;170,1156218052;1,7011562181;52;3;Non;26;1;12;0;0;11;0;0;7;0;0;7;0;0;37;60;NA;NA;30;AbsDes;AbsDes
XXXX;Lucille;F;24;Absence de Description;Filtrage passe bas;56;56;6;60;40;44,4444444444;4;40;50;55,5555555556;149,1075263023;1,491075263;53;3;Non;30;1;9;0;0;10;0;0;6;0;0;7;0;0;32;64;NA;NA;34;AbsDes;AbsDes
XXXX;Lucille;F;19;Absence de Description;Non filtré;96;96;9;90;3;3,3333333333;1;10;87;96,6666666667;154,1805064678;1,5418050647;38;0;Non;24;0;8;1;0;8;0;0;10;0;0;10;0;0;36;50;NA;NA;34;AbsDes;AbsDes
XXXX;Lucille;F;23;Description;Filtrage passe haut;87;87;6;60;9;10;4;40;81;90;135,053037405;1,3505303741;56;4;Oui;32;2;9;0;0;8;0;0;7;0;0;9;0;0;33;55;NA;NA;28;Non;105
XXXX;Lucille;H;19;Absence de Description;Non filtré;93;93;6;60;3;3,3333333333;4;40;87;96,6666666667;178,2495470047;1,78249547;52;0;Non;29;0;10;0;0;13;0;0;12;0;0;11;0;0;46;55;NA;NA;36;AbsDes;AbsDes
XXXX;Melinda;F;30;Description;Filtrage passe bas;93;93;8;80;5;5,5555555556;2;20;85;94,4444444444;153,3081133366;1,5330811334;30;2;Non;15;1;9;0;0;9;0;0;9;0;0;6;0;0;33;39;NA;NA;26;;50
XXXX;Melinda;F;18;Description;Non filtré;85;85;6;60;11;12,2222222222;4;40;79;87,7777777778;124,9198563099;1,2491985631;54;6;Oui;32;5;13;0;3;10;0;0;9;0;0;11;0;0;43;71;NA;71;50;Oui;60
XXXX;Lucille;F;20;Absence de Description;Filtrage passe haut;85;85;9;90;14;15,5555555556;1;10;76;84,4444444444;170,4257011414;1,7042570114;59;1;Oui;30;0;11;0;1;11;0;0;9;0;0;10;0;0;41;54;NA;NA;32;AbsDes;AbsDes
XXXX;Julia;F;18;Absence de Description;Filtrage passe bas;71;71;2;20;21;23,3333333333;8;80;69;76,6666666667;191,6556077003;1,916556077;31;2;Non;13;1;9;0;0;14;0;0;4;0;0;9;0;0;36;77;NA;NA;48;AbsDes;AbsDes
XXXX;Melinda;H;20;Description;Filtrage passe bas;70;70;4;40;24;26,6666666667;6;60;66;73,3333333333;212,0218474865;2,1202184749;49;5;Non;27;5;12;0;0;8;0;0;8;0;0;15;0;0;43;61;NA;NA;22;;47
XXXX;Julia;H;23;Description;Non filtré;79;79;5;50;16;17,7777777778;5;50;74;82,2222222222;193,6972601414;1,9369726014;38;0;Non;NA;NA;10;0;0;13;0;0;11;0;0;12;0;0;46;58;NA;NA;28;;
XXXX;Julia;H;21;Absence de Description;Filtrage passe haut;67;67;6;60;29;32,2222222222;4;40;61;67,7777777778;151,6784367561;1,5167843676;39;4;Non;NA;NA;10;0;0;7;0;0;5;0;0;13;0;0;35;65;NA;NA;40;AbsDes;AbsDes
XXXX;Lucille;F;19;Absence de Description;Non filtré;90;90;4;40;4;4,4444444444;6;60;86;95,5555555556;105,6040432453;1,0560404325;50;1;Non;28;1;13;0;0;17;0;0;12;0;0;12;0;0;54;67;NA;NA;30;AbsDes;AbsDes
XXXX;Lucille;F;23;Description;Filtrage passe haut;80;80;4;40;14;15,5555555556;6;60;76;84,4444444444;184,2175712585;1,8421757126;58;2;Oui;36;1;11;0;0;8;2;0;6;0;0;10;0;0;35;64;NA;NA;28;Oui;105
XXXX;Julia;F;25;Description;Filtrage passe bas;59;59;8;80;39;43,3333333333;2;20;51;56,6666666667;119,7900919914;1,1979009199;55;4;Non;29;2;11;0;1;13;0;0;12;0;0;10;0;0;46;73;NA;NA;36;;
XXXX;Julia;H;25;Absence de Description;Filtrage passe bas;84;84;6;60;12;13,3333333333;4;40;78;86,6666666667;158,5215120316;1,5852151203;56;0;Non;29;0;10;0;1;9;0;0;8;0;0;8;0;0;35;59;NA;NA;32;AbsDes;AbsDes
XXXX;Lucille;F;20;Description;Non filtré;68;68;4;40;26;28,8888888889;6;60;64;71,1111111111;122,5032486916;1,2250324869;42;1;Non;24;1;11;0;0;10;0;0;11;0;0;13;0;0;45;48;NA;NA;22;Non;65
XXXX;Julia;F;23;Absence de Description;Filtrage passe haut;79;79;7;70;18;20;3;30;72;80;195,3304343224;1,9533043432;36;2;Non;24;1;9;0;1;9;0;0;9;0;0;8;0;0;35;53;NA;NA;30;AbsDes;AbsDes
XXXX;Lucille;H;18;Absence de Description;Non filtré;92;92;6;60;4;4,4444444444;4;40;86;95,5555555556;189,8388741016;1,898388741;46;1;Non;24;1;11;0;0;9;0;0;8;0;0;7;0;0;35;61;NA;NA;28;AbsDes;AbsDes
XXXX;Julia;H;19;Description;Filtrage passe haut;87;87;8;80;11;12,2222222222;2;20;79;87,7777777778;461,3539767265;4,6135397673;55;1;Non;31;0;16;0;0;12;0;0;8;0;0;10;0;0;46;59;NA;NA;32;;
XXXX;Lucille;F;24;Absence de Description;Filtrage passe bas;71;71;6;60;25;27,7777777778;4;40;65;72,2222222222;117,7763834;1,177763834;49;2;Non;28;2;13;0;0;7;0;0;10;0;0;11;0;0;41;62;NA;NA;36;AbsDes;AbsDes
XXXX;Melinda;H;21;Description;Filtrage passe bas;63;63;3;30;30;33,33;7;70;60;66,66;797,06;7,9706;53;2;Non;46;1;11;0;0;8;0;0;11;0;0;9;0;0;39;42;NA;NA;24;;75
XXXX;Melinda;F;18;Absence de description;Non filtré;92;92;7;70;5;5,5555555556;3;30;85;94,4444444444;72,9;0,729;53;1;Non;29;1;10;0;0;11;0;0;14;0;0;14;0;0;49;68;NA;NA;36;AbsDes;AbsDes
XXXX;Lucille;F;22;Description;Filtrage passe haut;94;94;10;100;6;6,6666666667;0;0;84;93,3333333333;131,204564333;1,3120456433;47;0;Non;25;0;10;0;0;17;0;0;12;0;0;13;0;0;52;53;NA;NA;36;Non;105
XXXX;Melinda;F;21;Description;Filtrage passe bas;63;63;4;40;31;34,4444444444;6;60;59;65,5555555556;264,685;2,64685;44;1;Non;21;1;13;0;1;9;0;0;9;0;1;8;0;0;39;50;NA;NA;22;;47
XXXX;Melinda;F;21;Absence de Description;Filtrage passe haut;80;80;2;20;12;13,3333333333;8;80;78;86,6666666667;120,7060985565;1,2070609856;58;2;Oui;31;2;12;0;0;11;0;0;11;0;1;10;0;0;44;80;NA;NA;40;AbsDes;AbsDes
XXXX;Julia;H;19;Absence de Description;Filtrage passe bas;61;61;7;70;36;40;3;30;54;60;206,1529273987;2,061529274;46;0;Non;28;0;8;0;0;9;0;0;7;0;0;7;0;0;31;46;NA;NA;26;AbsDes;AbsDes
XXXX;Julia;F;21;Absence de Description;Non filtré;92;92;9;90;7;7,7777777778;1;10;83;92,2222222222;343,0881853104;3,4308818531;47;2;Non;25;2;8;0;0;9;0;0;6;0;0;7;0;0;30;74;NA;NA;40;AbsDes;AbsDes
XXXX;Julia;F;19;Description;Filtrage passe haut;71;71;6;60;25;27,7777777778;4;40;65;72,2222222222;188,8143875599;1,8881438756;55;3;Non;32;1;12;0;0;9;0;0;7;1;0;10;0;0;38;60;NA;NA;30;;
XXXX;Julia;F;22;Description;Filtrage passe bas;66;66;3;30;27;30;7;70;63;70;311,2;3,112;59;1;Oui;39;1;8;0;1;13;0;0;13;0;0;9;0;0;43;51;NA;NA;22;;
XXXX;Julia;H;18;Description;Non filtré;80;80;10;100;20;22,2222222222;0;0;70;77,7777777778;221,2471542358;2,2124715424;47;2;Non;25;0;10;0;0;10;0;0;6;0;0;10;0;0;36;63;NA;NA;36;;
XXXX;Julia;H;22;Absence de Description;Filtrage passe haut;56;56;8;80;42;46,6666666667;2;20;48;53,3333333333;265,0717470646;2,6507174706;60;0;Oui;37;0;14;0;0;9;0;0;14;0;0;13;0;0;50;60;NA;NA;28;AbsDes;AbsDes
XXXX;Lucille;H;23;Absence de Description;Filtrage passe bas;43;43;6;60;53;58,8888888889;4;40;37;41,1111111111;217,2687306404;2,1726873064;52;8;Oui;29;6;14;0;0;12;0;0;7;0;0;9;0;0;42;57;NA;NA;32;AbsDes;AbsDes
XXXX;Lucille;F;18;Description;Non filtré;89;89;9;90;10;11,1111111111;1;10;80;88,8888888889;139,7453203201;1,3974532032;57;3;Oui;31;2;11;0;0;12;0;0;10;0;0;15;0;0;48;73;NA;NA;40;Non;80
XXXX;Lucille;H;22;Absence de Description;Non filtré;79;79;8;80;19;21,1111111111;2;20;71;78,8888888889;172,0294263363;1,7202942634;59;1;Oui;30;0;11;0;0;10;0;0;11;0;0;12;0;0;44;63;NA;NA;34;AbsDes;AbsDes
XXXX;Julia;F;20;Absence de Description;Filtrage passe bas;87;87;2;20;5;5,5555555556;8;80;85;94,4444444444;233,6000669003;2,336000669;57;2;Non;NA;NA;9;0;0;11;0;0;5;0;0;8;0;0;33;53;NA;NA;22;AbsDes;AbsDes
XXXX;Julia;F;18;Absence de Description;Filtrage passe haut;70;70;7;70;27;30;3;30;63;70;137,940721035;1,3794072104;55;5;Oui;30;5;10;0;0;10;0;0;10;0;0;8;0;0;38;56;NA;NA;30;AbsDes;AbsDes
XXXX;Julia;H;24;Description;Filtrage passe haut;91;91;9;90;8;8,8888888889;1;10;82;91,1111111111;191,9693260193;1,9196932602;58;2;Oui;35;0;8;1;0;14;0;0;10;0;0;11;0;0;43;60;NA;NA;40;;
XXXX;Julia;H;20;Description;Filtrage passe bas;82;82;8;80;16;17,7777777778;2;20;74;82,2222222222;197,9829056263;1,9798290563;47;1;Non;25;1;9;0;0;15;0;0;10;0;0;6;0;0;40;NA;NA;NA;36;;
XXXX;Lucille;F;21;Absence de Description;Non filtré;90;90;9;90;9;10;1;10;81;90;139,8522844315;1,3985228443;44;0;Non;24;0;9;0;0;13;0;0;10;0;0;9;0;0;41;52;NA;NA;24;AbsDes;AbsDes
XXXX;Lucille;F;20;Description;Filtrage passe haut;86;86;4;40;8;8,8888888889;6;60;82;91,1111111111;115,5730865002;1,155730865;57;3;Oui;34;3;8;0;0;10;0;0;11;0;0;7;0;0;36;61;NA;NA;32;Non;80
XXXX;Julia;H;21;Description;Non filtré;97;97;8;80;1;1,1111111111;2;20;89;98,8888888889;82,319801569;0,8231980157;57;3;Oui;30;3;12;0;1;12;0;0;11;0;0;8;0;0;43;59;NA;NA;34;;
XXXX;Lucille;H;23;Absence de Description;Filtrage passe haut;79;79;7;70;18;20;3;30;72;80;224,836974144;2,2483697414;57;3;Oui;34;2;10;0;0;16;0;0;12;0;0;9;0;0;47;63;NA;NA;28;AbsDes;AbsDes
XXXX;Julia;F;20;Absence de Description;Filtrage passe bas;60;60;6;60;36;40;4;40;54;60;119,1390287876;1,1913902879;49;2;Non;22;1;14;0;0;12;0;0;11;0;0;15;0;0;52;53;NA;NA;24;AbsDes;AbsDes
XXXX;Julia;F;21;Description;Filtrage passe bas;80;80;2;20;12;13,3333333333;8;80;78;86,6666666667;183,8783020973;1,838783021;54;0;Non;NA;NA;18;0;0;17;0;0;10;1;1;14;0;0;59;73;NA;NA;38;;
XXXX;Lucille;H;24;Absence de Description;Filtrage passe bas;78;78;8;80;20;22,2222222222;2;20;70;77,7777777778;148,3896207809;1,4838962078;56;4;Oui;33;3;13;0;0;13;1;0;9;0;0;16;0;0;51;66;NA;NA;30;AbsDes;AbsDes
XXXX;Julia;H;20;Absence de Description;Non filtré;96;96;8;80;2;2,2222222222;2;20;88;97,7777777778;102,2984671593;1,0229846716;59;1;Oui;34;1;9;0;1;7;0;0;9;0;0;9;0;0;34;50;NA;NA;26;AbsDes;AbsDes
XXXX;Lucille;H;19;Description;Filtrage passe haut;97;97;8;80;1;1,1111111111;2;20;89;98,8888888889;147,4392313957;1,474392314;54;3;Non;NA;NA;8;2;0;10;0;0;8;0;0;12;0;0;38;67;NA;NA;38;Oui;90
XXXX;Melinda;F;20;Description;Non filtré;93;93;5;50;2;2,2222222222;5;50;88;97,7777777778;85,7536611557;0,8575366116;57;3;Oui;40;0;13;0;0;12;0;0;13;0;0;13;0;0;51;65;NA;NA;32;;50
XXXX;Melinda;F;20;Absence de Description;Filtrage passe haut;89;89;7;70;8;8,8888888889;3;30;82;91,1111111111;346,7770524025;3,467770524;59;1;Oui;32;0;10;0;0;11;1;0;13;0;0;12;0;0;46;76;NA;NA;38;AbsDes;AbsDes
XXXX;Lucille;H;22;Description;Non filtré;96;96;9;90;3;3,3333333333;1;10;87;96,6666666667;118,2380461693;1,1823804617;55;5;Oui;34;1;9;0;1;13;0;0;6;0;0;14;0;1;42;61;NA;NA;30;Non;75
XXXX;Lucille;F;18;Absence de Description;Filtrage passe bas;68;68;3;30;25;27,7777777778;7;70;65;72,2222222222;406,1266515255;4,0612665153;56;1;Non;30;0;9;0;2;8;0;1;10;0;0;10;0;0;37;70;NA;NA;38;AbsDes;AbsDes
XXXX;Melinda;H;18;Absence de Description;Filtrage passe haut;78;78;7;70;19;21,1111111111;3;30;71;78,8888888889;327,830726862;3,2783072686;46;1;Non;25;1;11;0;0;8;0;0;7;0;0;16;0;0;42;69;NA;NA;34;AbsDes;AbsDes
XXXX;Melinda;H;24;Absence de Description;Filtrage passe bas;62;62;7;70;35;38,8888888889;3;30;55;61,1111111111;192,6507775784;1,9265077758;37;1;Non;19;1;9;0;2;8;0;0;8;0;0;11;0;0;36;65;NA;NA;36;AbsDes;AbsDes
XXXX;Lucille;F;22;Absence de Description;Non filtré;88;88;8;80;10;11,1111111111;2;20;80;88,8888888889;121,343619585;1,2134361959;55;3;Non;29;1;12;0;0;14;0;0;10;0;0;11;0;0;47;47;NA;NA;26;AbsDes;AbsDes
XXXX;Lucille;F;18;Description;Filtrage passe haut;73;73;7;70;24;26,6666666667;3;30;66;73,3333333333;161,5236597061;1,6152365971;52;3;Non;28;2;11;0;1;13;0;0;13;0;0;12;0;1;49;49;NA;NA;26;Non;60
XXXX;Julia;F;22;Description;Filtrage passe bas;77;77;3;30;16;17,7777777778;7;70;74;82,2222222222;153,0505740643;1,5305057406;60;0;Oui;45;0;9;0;1;10;1;0;9;1;0;11;0;0;39;67;NA;NA;32;;
XXXX;Melinda;H;24;Absence de Description;Non filtré;92;92;7;70;5;5,5555555556;3;30;85;94,4444444444;296,1468245983;2,961468246;50;1;Non;30;1;14;0;0;12;1;0;11;0;0;9;0;0;46;55;NA;NA;36;AbsDes;AbsDes
XXXX;Julia;H;22;Description;Filtrage passe haut;49;49;7;70;48;53,3333333333;3;30;42;46,6666666667;236,8786282539;2,3687862825;34;6;Non;16;4;9;0;0;14;0;0;10;0;0;15;0;0;48;49;NA;NA;30;;
XXXX;Melinda;H;25;Description;Filtrage passe bas;77;77;8;80;21;23,3333333333;2;20;69;76,6666666667;148,7656111717;1,4876561117;39;5;Non;21;3;9;0;0;7;0;0;9;0;0;10;0;0;35;57;NA;NA;32;;180
XXXX;Melinda;H;21;Description;Non filtré;87;87;8;80;11;12,2222222222;2;20;79;87,7777777778;248,4618222713;2,4846182227;57;0;Non;27;0;12;0;3;8;1;0;9;0;0;13;0;1;42;52;NA;NA;24;;70
XXXX;Lucille;H;19;Absence de Description;Filtrage passe haut;60;60;10;100;40;44,4444444444;0;0;50;55,5555555556;269,2542457581;2,6925424576;54;2;Non;28;2;10;1;0;11;0;0;8;0;0;12;0;0;41;68;NA;NA;38;AbsDes;AbsDes
XXXX;Lucille;H;22;Absence de Description;Non filtré;82;82;8;80;16;17,7777777778;2;20;74;82,2222222222;117,2932877541;1,1729328775;39;1;Non;19;1;9;1;0;10;0;0;11;0;0;10;0;1;40;55;NA;NA;28;AbsDes;AbsDes
XXXX;Lucille;F;19;Description;Non filtré;80;80;4;40;14;15,5555555556;6;60;76;84,4444444444;98,6503894329;0,9865038943;42;1;Non;22;0;12;0;0;11;0;0;8;0;0;7;0;0;38;56;NA;NA;32;Non;60
XXXX;Melinda;F;21;Absence de Description;Filtrage passe haut;85;85;7;70;12;13,3333333333;3;30;78;86,6666666667;260,007866621;2,600078666;38;2;Non;19;1;11;3;0;9;0;0;7;0;0;9;0;0;36;55;NA;NA;26;AbsDes;AbsDes
XXXX;Melinda;F;19;Absence de Description;Filtrage passe bas;61;61;7;70;36;40;3;30;54;60;209,2629027367;2,0926290274;53;0;Non;27;0;11;0;0;13;0;0;12;0;2;12;0;0;48;63;NA;NA;30;AbsDes;AbsDes
XXXX;Melinda;H;22;Description;Filtrage passe haut;87;87;5;50;8;8,8888888889;5;50;82;91,1111111111;266,3178083897;2,6631780839;60;0;Oui;NA;NA;13;0;0;13;1;0;5;0;0;9;0;0;40;51;NA;NA;26;;60
XXXX;Melinda;H;26;Description;Filtrage passe bas;77;77;4;40;17;18,8888888889;6;60;73;81,1111111111;163,7423713207;1,6374237132;46;1;Non;28;1;11;0;2;9;1;0;11;0;1;10;0;0;41;71;NA;NA;24;;43
XXXX;Julia;H;18;Description;Non filtré;90;90;4;40;4;4,4444444444;6;60;86;95,5555555556;171,1141033173;1,7111410332;58;2;Oui;35;2;11;0;0;15;0;0;13;0;0;12;0;0;51;57;NA;NA;28;;
XXXX;Melinda;H;20;Absence de Description;Filtrage passe haut;93;93;8;80;5;5,5555555556;2;20;85;94,4444444444;223,728988409;2,2372898841;46;8;Non;26;3;9;0;1;14;0;1;5;0;0;12;0;0;40;55;NA;NA;36;AbsDes;AbsDes
XXXX;Julia;H;18;Absence de Description;Filtrage passe bas;52;52;6;60;44;48,8888888889;4;40;46;51,1111111111;133,2234055996;1,332234056;57;3;Oui;32;1;11;0;1;12;0;1;11;0;0;12;0;0;46;49;NA;NA;32;AbsDes;AbsDes
XXXX;Lucille;H;25;Absence de Description;Non filtré;93;93;9;90;6;6,666666667;1;10;84;93,33333333;105,1027749;1,051027749;55;5;Non;33;3;8;0;0;8;1;0;8;0;0;13;0;0;37;61;NA;NA;32;AbsDes;AbsDes
XXXX;Lucille;H;19;Description;Filtrage passe haut;92;92;7;70;5;5,555555556;3;30;85;94,44444444;222,8692634;2,228692634;39;3;Non;22;2;9;0;0;10;1;0;10;0;0;12;0;0;41;69;NA;NA;32;Vague;110
XXXX;Julia;H;19;Description;Filtrage passe bas;73;73;2;20;19;21,11111111;8;80;71;78,88888889;111,2386353;1,112386353;58;2;Oui;27;0;12;0;0;10;0;0;9;0;0;9;0;0;40;51;NA;NA;26;;
XXXX;Julia;H;19;Description;Non filtré;95;95;10;100;5;5,555555556;0;0;85;94,44444444;125,5927215;1,255927215;51;5;Non;22;5;14;0;0;12;0;0;10;0;0;9;0;0;45;76;NA;NA;40;;
XXXX;Julia;H;20;Absence de Description;Filtrage passe haut;77;77;5;50;18;20;5;50;72;80;206,9849343;2,069849343;53;2;Non;NA;NA;13;0;0;13;0;0;7;0;0;13;0;0;46;44;NA;NA;24;AbsDes;AbsDes
XXXX;Lucille;H;19;Absence de Description;Filtrage passe bas;73;73;6;60;23;25,5555555556;4;40;67;74,4444444444;203,5327987671;2,0353279877;51;7;Non;27;3;11;0;0;9;0;0;9;0;0;12;0;0;41;51;NA;NA;28;AbsDes;AbsDes
XXXX;Melinda;F;19;Absence de Description;Non filtré;72;72;8;80;26;28,8888888889;2;20;64;71,1111111111;124,9370634556;1,2493706346;51;1;Non;29;1;13;0;4;13;1;0;8;0;0;10;0;0;44;65;NA;NA;32;AbsDes;AbsDes
XXXX;Lucille;F;20;Description;Filtrage passe haut;66;66;9;90;33;36,6666666667;1;10;57;63,3333333333;239,300801754;2,3930080175;35;4;Non;19;2;10;0;0;9;1;0;9;0;0;9;0;0;37;50;NA;NA;30;Non;90
XXXX;Melinda;F;24;Description;Filtrage passe bas;78;78;1;10;13;14,4444444444;9;90;77;85,5555555556;198,9718637466;1,9897186375;51;8;Non;29;3;12;0;0;13;0;0;13;0;0;9;0;0;47;45;NA;NA;22;Non;70
XXXX;Melinda;F;20;Description;Non filtré;78;78;10;100;22;24,44;0;0;68;75,55;184,3725585938;1,8437255859;54;0;Non;29;0;12;0;1;10;0;0;10;0;0;9;0;0;41;75;NA;NA;32;Non;60
XXXX;Julia;F;29;Absence de Description;Filtrage passe haut;79;79;9;90;20;22,2222222222;1;10;70;77,7777777778;138,4981284142;1,3849812841;46;1;Non;24;0;9;0;1;10;0;0;7;0;0;10;0;0;36;80;NA;NA;40;AbsDes;AbsDes
XXXX;Julia;F;21;Absence de Description;Filtrage passe bas;70;70;2;20;22;24,4444444444;8;80;68;75,5555555556;138,2950515747;1,3829505157;60;0;Oui;34;0;14;0;0;12;0;0;11;0;0;13;0;0;50;69;NA;NA;34;AbsDes;AbsDes
XXXX;Lucille;F;23;Absence de Description;Non filtré;94;94;7;70;3;3,3333333333;3;30;87;96,6666666667;151,6131231785;1,5161312318;58;2;Oui;35;1;8;0;0;10;0;0;9;0;0;9;0;0;36;57;NA;NA;30;AbsDes;AbsDes
XXXX;Lucille;H;18;Absence de Description;Non filtré;97;97;8;80;1;1,1111111111;2;20;89;98,8888888889;176,2355864048;1,762355864;48;1;Non;NA;NA;11;0;0;8;0;0;8;0;0;9;0;0;36;53;NA;NA;22;AbsDes;AbsDes
XXXX;Lucille;H;26;Description;Filtrage passe haut;82;82;4;40;12;13,3333333333;6;60;78;86,6666666667;349,0038764477;3,4900387645;55;3;Non;29;2;11;0;0;11;0;0;10;0;0;11;0;0;43;59;NA;NA;34;Non;105
XXXX;Julia;F;20;Description;Filtrage passe bas;67;67;6;60;29;32,2222222222;4;40;61;67,7777777778;259,534526825;2,5953452682;54;0;Non;NA;NA;10;0;1;13;0;0;7;0;0;9;1;0;39;52;NA;NA;30;;
XXXX;Lucille;H;20;Description;Filtrage passe bas;49;49;9;90;50;55,5555555556;1;10;40;44,4444444444;188,6790857315;1,8867908573;56;4;Oui;37;4;5;0;1;8;0;0;9;0;0;8;0;0;30;60;NA;NA;24;Non;90
XXXX;Julia;H;23;Description;Non filtré;80;80;6;60;16;17,7777777778;4;40;74;82,2222222222;256,5147089958;2,56514709;48;2;Non;NA ;NA;7;0;1;7;0;0;9;0;0;10;0;0;33;43;NA;NA;20;;
XXXX;Melinda;H;19;Absence de Description;Filtrage passe bas;77;77;4;40;17;18,8888888889;6;60;73;81,1111111111;383,1843783855;3,8318437839;38;0;Non;20;0;13;0;0;11;0;0;10;0;0;8;0;0;42;54;NA;NA;30;AbsDes;AbsDes
XXXX;Melinda;H;18;Absence de Description;Filtrage passe haut;84;84;7;70;13;14,4444444444;3;30;77;85,5555555556;179,4751651287;1,7947516513;39;4;Non;23;0;10;0;0;11;0;0;10;0;0;17;0;0;48;63;NA;NA;34;AbsDes;AbsDes
XXXX;Melinda;H;18;Absence de Description;Non filtré;92;92;6;60;4;4,4444444444;4;40;86;95,5555555556;138,5191464424;1,3851914644;53;3;Non;NA;NA;10;0;0;10;0;1;10;1;0;12;0;0;42;67;NA;NA;32;AbsDes;AbsDes
XXXX;Julia;H;20;Description;Filtrage passe haut;70;70;6;60;26;28,8888888889;4;40;64;71,1111111111;224,8107717037;2,248107717;56;0;Non;32;0;16;0;0;19;0;0;12;0;0;14;0;1;61;49;NA;NA;24;;
XXXX;Julia;H;21;Description;Filtrage passe bas;82;82;2;20;10;11,1111111111;8;80;80;88,8888888889;179,3527286053;1,7935272861;48;0;Non;NA;NA;7;0;0;13;0;0;9;0;0;8;0;0;37;52;NA;NA;34;;
XXXX;Lucille;H;18;Description;Non filtré;93;93;5;50;2;2,2222222222;5;50;88;97,7777777778;175,2118196487;1,7521181965;57;3;Oui;37;2;11;0;0;11;0;0;7;0;0;12;0;0;41;55;NA;NA;30;Non;60
XXXX;Lucille;H;18;Absence de Description;Filtrage passe haut;86;86;5;50;9;10;5;50;81;90;205,1777539253;2,0517775393;56;2;Non;30;1;13;0;1;9;0;0;10;0;1;12;0;0;44;70;NA;NA;36;AbsDes;AbsDes
XXXX;Lucille;H;18;Absence de Description;Filtrage passe bas;66;66;4;40;28;31,1111111111;6;60;62;68,8888888889;188,1970508099;1,8819705081;44;2;Non;25;1;6;0;0;11;0;0;8;0;0;13;0;0;38;55;NA;NA;24;AbsDes;AbsDes
XXXX;Lucille;H;18;Absence de Description;Non filtré;94;94;9;90;5;5,55555556;1;10;85;94,4444444;157,596511;1,57596511;43;2;Non;24;2;9;0;0;13;0;0;11;0;0;8;0;0;41;57;NA;NA;32;AbsDes;AbsDes
XXXX;Lucille;H;18;Description;Filtrage passe haut;95;95;6;60;1;1,11111111;4;40;89;98,8888889;132,964527;1,32964527;46;2;Non;29;1;8;0;0;8;0;0;6;0;0;8;0;0;30;51;NA;NA;26;Non;90
XXXX;Julia;F;19;Description;Non filtré;87;87;8;80;11;12,2222222;2;20;79;87,7777778;180,640852;1,80640852;49;4;Non;28;2;10;0;0;14;0;0;10;0;3;12;0;0;46;69;NA;NA;38;;
XXXX;Julia;H;19;Description;Filtrage passe bas;48;48;5;50;47;52,2222222;5;50;43;47,7777778;371,403539;3,71403539;53;0;Non;NA;NA;13;0;1;12;0;0;6;0;0;10;0;0;41;51;NA;NA;30;;
