FinalTrip;25;['F'];['D'];['O'];['B', 'F', 'S'];Lucille
ID;sexe;age;verbalisation;filtrage;bloc;essai;liste;type;idStim;repClavier;typeRep;BR;TR;PT_Med;PT_Moyenne;PT_Fidelite;PT_Rang
SFinalTrip_25_F_2019130;F;25;Description;Filtrage passe bas;1;1;Groupe_H117_London;Distracteur;H117London_H004;s;Rejet;1;0.560;3.0;3.411764705882353;0.806;5.0
SFinalTrip_25_F_2019130;F;25;Description;Filtrage passe bas;1;2;Groupe_H117_London;Distracteur;H117London_H103;s;Rejet;1;0.580;5.0;4.0;0.792;2.0
SFinalTrip_25_F_2019130;F;25;Description;Filtrage passe bas;1;3;Groupe_H117_London;Distracteur;H117London_H033;s;Rejet;1;0.360;2.0;2.823529411764706;0.818;7.0
SFinalTrip_25_F_2019130;F;25;Description;Filtrage passe bas;1;4;Groupe_H117_London;Distracteur;H117London_H017;s;Rejet;1;0.283;4.0;3.3529411764705883;0.834;6.0
SFinalTrip_25_F_2019130;F;25;Description;Filtrage passe bas;1;5;Groupe_H117_London;Distracteur;H117London_H115;s;Rejet;1;0.069;4.0;4.352941176470588;0.808;1.0
SFinalTrip_25_F_2019130;F;25;Description;Filtrage passe bas;1;6;Groupe_H117_London;Distracteur;H117London_H026;s;Rejet;1;0.312;1.0;2.176470588235294;0.794;8.0
SFinalTrip_25_F_2019130;F;25;Description;Filtrage passe bas;1;7;Groupe_H117_London;Cible;H117London_H117;s;Omission;0;0.130;;;;
SFinalTrip_25_F_2019130;F;25;Description;Filtrage passe bas;1;8;Groupe_H117_London;Distracteur;H117London_H018;s;Rejet;1;0.440;3.0;3.6470588235294117;0.796;4.0
SFinalTrip_25_F_2019130;F;25;Description;Filtrage passe bas;1;9;Groupe_H117_London;Distracteur;H117London_H012;s;Rejet;1;0.708;1.0;1.7647058823529411;0.82;9.0
SFinalTrip_25_F_2019130;F;25;Description;Filtrage passe bas;1;10;Groupe_H117_London;Distracteur;H117London_H063;s;Rejet;1;0.369;4.0;3.9411764705882355;0.808;3.0
SFinalTrip_25_F_2019130;F;25;Description;Filtrage passe bas;2;1;Groupe_H203_Chicago;Distracteur;H203Chicago_H209;s;Rejet;1;0.672;2.0;2.2941176470588234;0.847;6.0
SFinalTrip_25_F_2019130;F;25;Description;Filtrage passe bas;2;2;Groupe_H203_Chicago;Distracteur;H203Chicago_H229;s;Rejet;1;0.830;3.0;3.3529411764705883;0.803;3.0
SFinalTrip_25_F_2019130;F;25;Description;Filtrage passe bas;2;3;Groupe_H203_Chicago;Distracteur;H203Chicago_H016;k;FR;0;0.842;6.0;4.764705882352941;0.813;2.0
SFinalTrip_25_F_2019130;F;25;Description;Filtrage passe bas;2;4;Groupe_H203_Chicago;Distracteur;H203Chicago_H240;s;Rejet;1;0.420;1.0;1.4705882352941178;0.833;8.0
SFinalTrip_25_F_2019130;F;25;Description;Filtrage passe bas;2;5;Groupe_H203_Chicago;Cible;H203Chicago_H203;s;Omission;0;0.238;;;;
SFinalTrip_25_F_2019130;F;25;Description;Filtrage passe bas;2;6;Groupe_H203_Chicago;Distracteur;H203Chicago_H242;s;Rejet;1;0.210;1.0;1.1176470588235294;0.841;9.0
SFinalTrip_25_F_2019130;F;25;Description;Filtrage passe bas;2;7;Groupe_H203_Chicago;Distracteur;H203Chicago_H213;s;Rejet;1;0.540;1.0;1.7058823529411764;0.827;7.0
SFinalTrip_25_F_2019130;F;25;Description;Filtrage passe bas;2;8;Groupe_H203_Chicago;Distracteur;H203Chicago_H254;s;Rejet;1;0.538;2.0;3.0588235294117645;0.838;4.0
SFinalTrip_25_F_2019130;F;25;Description;Filtrage passe bas;2;9;Groupe_H203_Chicago;Distracteur;H203Chicago_H004;k;FR;0;0.560;5.0;5.0;0.834;1.0
SFinalTrip_25_F_2019130;F;25;Description;Filtrage passe bas;2;10;Groupe_H203_Chicago;Distracteur;H203Chicago_H208;s;Rejet;1;0.246;3.0;2.8823529411764706;0.827;5.0
SFinalTrip_25_F_2019130;F;25;Description;Filtrage passe bas;3;1;Groupe_H245_Chicago;Distracteur;H245Chicago_H217;s;Rejet;1;0.742;3.0;3.0588235294117645;0.778;6.0
SFinalTrip_25_F_2019130;F;25;Description;Filtrage passe bas;3;2;Groupe_H245_Chicago;Distracteur;H245Chicago_H006;k;FR;0;0.820;4.0;3.764705882352941;0.808;2.0
SFinalTrip_25_F_2019130;F;25;Description;Filtrage passe bas;3;3;Groupe_H245_Chicago;Distracteur;H245Chicago_H011;s;Rejet;1;0.506;2.0;2.4705882352941178;0.784;9.0
SFinalTrip_25_F_2019130;F;25;Description;Filtrage passe bas;3;4;Groupe_H245_Chicago;Distracteur;H245Chicago_H232;s;Rejet;1;0.459;3.0;3.1176470588235294;0.772;5.0
SFinalTrip_25_F_2019130;F;25;Description;Filtrage passe bas;3;5;Groupe_H245_Chicago;Distracteur;H245Chicago_H235;s;Rejet;1;0.490;4.0;3.9411764705882355;0.765;1.0
SFinalTrip_25_F_2019130;F;25;Description;Filtrage passe bas;3;6;Groupe_H245_Chicago;Distracteur;H245Chicago_H214;s;Rejet;1;0.660;4.0;3.588235294117647;0.774;3.0
SFinalTrip_25_F_2019130;F;25;Description;Filtrage passe bas;3;7;Groupe_H245_Chicago;Distracteur;H245Chicago_H010;s;Rejet;1;0.430;4.0;3.2941176470588234;0.791;4.0
SFinalTrip_25_F_2019130;F;25;Description;Filtrage passe bas;3;8;Groupe_H245_Chicago;Distracteur;H245Chicago_H234;s;Rejet;1;0.349;2.0;2.6470588235294117;0.819;7.0
SFinalTrip_25_F_2019130;F;25;Description;Filtrage passe bas;3;9;Groupe_H245_Chicago;Cible;H245Chicago_H245;k;Hit;1;0.420;;;;
SFinalTrip_25_F_2019130;F;25;Description;Filtrage passe bas;3;10;Groupe_H245_Chicago;Distracteur;H245Chicago_H037;s;Rejet;1;0.346;2.0;2.588235294117647;0.8;8.0
SFinalTrip_25_F_2019130;F;25;Description;Filtrage passe bas;4;1;Groupe_H249_Chicago;Distracteur;H249Chicago_H221;s;Rejet;1;0.630;0.0;1.0;0.855;8.0
SFinalTrip_25_F_2019130;F;25;Description;Filtrage passe bas;4;2;Groupe_H249_Chicago;Distracteur;H249Chicago_H205;s;Rejet;1;0.340;2.0;1.6470588235294117;0.86;7.0
SFinalTrip_25_F_2019130;F;25;Description;Filtrage passe bas;4;3;Groupe_H249_Chicago;Distracteur;H249Chicago_H204;s;Rejet;1;0.594;4.0;3.3529411764705883;0.834;4.0
SFinalTrip_25_F_2019130;F;25;Description;Filtrage passe bas;4;4;Groupe_H249_Chicago;Distracteur;H249Chicago_H020;s;Rejet;1;0.430;7.0;6.235294117647059;0.84;1.0
SFinalTrip_25_F_2019130;F;25;Description;Filtrage passe bas;4;5;Groupe_H249_Chicago;Distracteur;H249Chicago_H216;s;Rejet;1;0.421;1.0;0.9411764705882353;0.858;9.0
SFinalTrip_25_F_2019130;F;25;Description;Filtrage passe bas;4;6;Groupe_H249_Chicago;Distracteur;H249Chicago_H225;s;Rejet;1;0.400;2.0;2.0;0.839;5.0
SFinalTrip_25_F_2019130;F;25;Description;Filtrage passe bas;4;7;Groupe_H249_Chicago;Distracteur;H249Chicago_H258;s;Rejet;1;1.460;5.0;4.588235294117647;0.84;2.0
SFinalTrip_25_F_2019130;F;25;Description;Filtrage passe bas;4;8;Groupe_H249_Chicago;Cible;H249Chicago_H249;k;Hit;1;0.580;;;;
SFinalTrip_25_F_2019130;F;25;Description;Filtrage passe bas;4;9;Groupe_H249_Chicago;Distracteur;H249Chicago_H248;s;Rejet;1;0.390;2.0;1.7647058823529411;0.846;6.0
SFinalTrip_25_F_2019130;F;25;Description;Filtrage passe bas;4;10;Groupe_H249_Chicago;Distracteur;H249Chicago_H206;s;Rejet;1;0.215;3.0;3.5294117647058822;0.86;3.0
SFinalTrip_25_F_2019130;F;25;Description;Filtrage passe bas;5;1;Groupe_F091_London;Distracteur;F091London_F039;s;Rejet;1;0.550;2.0;2.4705882352941178;0.886;5.0
SFinalTrip_25_F_2019130;F;25;Description;Filtrage passe bas;5;2;Groupe_F091_London;Distracteur;F091London_F097;s;Rejet;1;0.314;5.0;5.235294117647059;0.885;1.0
SFinalTrip_25_F_2019130;F;25;Description;Filtrage passe bas;5;3;Groupe_F091_London;Distracteur;F091London_F011;s;Rejet;1;0.517;2.0;2.764705882352941;0.862;4.0
SFinalTrip_25_F_2019130;F;25;Description;Filtrage passe bas;5;4;Groupe_F091_London;Distracteur;F091London_F144;s;Rejet;1;0.480;3.0;3.3529411764705883;0.88;3.0
SFinalTrip_25_F_2019130;F;25;Description;Filtrage passe bas;5;5;Groupe_F091_London;Distracteur;F091London_F013;s;Rejet;1;0.450;1.0;1.2941176470588236;0.885;9.0
SFinalTrip_25_F_2019130;F;25;Description;Filtrage passe bas;5;6;Groupe_F091_London;Distracteur;F091London_F007;s;Rejet;1;0.471;2.0;2.1176470588235294;0.87;7.0
SFinalTrip_25_F_2019130;F;25;Description;Filtrage passe bas;5;7;Groupe_F091_London;Distracteur;F091London_F001;s;Rejet;1;0.510;2.0;2.1176470588235294;0.882;8.0
SFinalTrip_25_F_2019130;F;25;Description;Filtrage passe bas;5;8;Groupe_F091_London;Distracteur;F091London_F086;s;Rejet;1;0.360;4.0;4.294117647058823;0.877;2.0
SFinalTrip_25_F_2019130;F;25;Description;Filtrage passe bas;5;9;Groupe_F091_London;Distracteur;F091London_F124;s;Rejet;1;0.360;2.0;2.2941176470588234;0.905;6.0
SFinalTrip_25_F_2019130;F;25;Description;Filtrage passe bas;5;10;Groupe_F091_London;Cible;F091London_F091;s;Omission;0;0.330;;;;
SFinalTrip_25_F_2019130;F;25;Description;Filtrage passe bas;6;1;Groupe_H013_KDE;Distracteur;H013KDE_H005;s;Rejet;1;0.610;2.0;2.6470588235294117;0.802;8.0
SFinalTrip_25_F_2019130;F;25;Description;Filtrage passe bas;6;2;Groupe_H013_KDE;Distracteur;H013KDE_H033;s;Rejet;1;0.470;1.0;1.0;0.811;9.0
SFinalTrip_25_F_2019130;F;25;Description;Filtrage passe bas;6;3;Groupe_H013_KDE;Distracteur;H013KDE_H022;s;Rejet;1;0.460;3.0;3.4705882352941178;0.765;5.0
SFinalTrip_25_F_2019130;F;25;Description;Filtrage passe bas;6;4;Groupe_H013_KDE;Cible;H013KDE_H013;k;Hit;1;0.770;;;;
SFinalTrip_25_F_2019130;F;25;Description;Filtrage passe bas;6;5;Groupe_H013_KDE;Distracteur;H013KDE_H008;s;Rejet;1;0.949;3.0;3.9411764705882355;0.812;3.0
SFinalTrip_25_F_2019130;F;25;Description;Filtrage passe bas;6;6;Groupe_H013_KDE;Distracteur;H013KDE_H021;s;Rejet;1;0.550;2.0;2.764705882352941;0.789;7.0
SFinalTrip_25_F_2019130;F;25;Description;Filtrage passe bas;6;7;Groupe_H013_KDE;Distracteur;H013KDE_H025;k;FR;0;0.668;4.0;3.7058823529411766;0.775;4.0
SFinalTrip_25_F_2019130;F;25;Description;Filtrage passe bas;6;8;Groupe_H013_KDE;Distracteur;H013KDE_H014;s;Rejet;1;0.468;5.0;4.764705882352941;0.759;1.0
SFinalTrip_25_F_2019130;F;25;Description;Filtrage passe bas;6;9;Groupe_H013_KDE;Distracteur;H013KDE_H018;s;Rejet;1;0.247;4.0;4.529411764705882;0.804;2.0
SFinalTrip_25_F_2019130;F;25;Description;Filtrage passe bas;6;10;Groupe_H013_KDE;Distracteur;H013KDE_H024;s;Rejet;1;0.300;3.0;3.1176470588235294;0.824;6.0
SFinalTrip_25_F_2019130;F;25;Description;Filtrage passe bas;7;1;Groupe_F02_KDE;Cible;F02KDE_F02;k;Hit;1;0.914;;;;
SFinalTrip_25_F_2019130;F;25;Description;Filtrage passe bas;7;2;Groupe_F02_KDE;Distracteur;F02KDE_F13;s;Rejet;1;0.371;3.0;3.0;0.825;4.0
SFinalTrip_25_F_2019130;F;25;Description;Filtrage passe bas;7;3;Groupe_F02_KDE;Distracteur;F02KDE_F11;s;Rejet;1;0.247;4.0;3.823529411764706;0.776;2.0
SFinalTrip_25_F_2019130;F;25;Description;Filtrage passe bas;7;4;Groupe_F02_KDE;Distracteur;F02KDE_F29;s;Rejet;1;0.164;3.0;2.588235294117647;0.775;7.0
SFinalTrip_25_F_2019130;F;25;Description;Filtrage passe bas;7;5;Groupe_F02_KDE;Distracteur;F02KDE_F24;s;Rejet;1;0.276;1.0;2.176470588235294;0.807;8.0
SFinalTrip_25_F_2019130;F;25;Description;Filtrage passe bas;7;6;Groupe_F02_KDE;Distracteur;F02KDE_F04;s;Rejet;1;0.322;3.0;3.6470588235294117;0.808;3.0
SFinalTrip_25_F_2019130;F;25;Description;Filtrage passe bas;7;7;Groupe_F02_KDE;Distracteur;F02KDE_F34;s;Rejet;1;0.268;1.0;1.3529411764705883;0.809;9.0
SFinalTrip_25_F_2019130;F;25;Description;Filtrage passe bas;7;8;Groupe_F02_KDE;Distracteur;F02KDE_F12;s;Rejet;1;0.280;2.0;2.7058823529411766;0.817;5.0
SFinalTrip_25_F_2019130;F;25;Description;Filtrage passe bas;7;9;Groupe_F02_KDE;Distracteur;F02KDE_F08;s;Rejet;1;0.400;5.0;3.823529411764706;0.779;1.0
SFinalTrip_25_F_2019130;F;25;Description;Filtrage passe bas;7;10;Groupe_F02_KDE;Distracteur;F02KDE_F09;s;Rejet;1;0.250;2.0;2.7058823529411766;0.775;6.0
SFinalTrip_25_F_2019130;F;25;Description;Filtrage passe bas;8;1;Groupe_F003_Chicago;Distracteur;F003Chicago_F219;s;Rejet;1;0.582;1.0;1.588235294117647;0.789;8.0
SFinalTrip_25_F_2019130;F;25;Description;Filtrage passe bas;8;2;Groupe_F003_Chicago;Cible;F003Chicago_F003;k;Hit;1;0.713;;;;
SFinalTrip_25_F_2019130;F;25;Description;Filtrage passe bas;8;3;Groupe_F003_Chicago;Distracteur;F003Chicago_F029;s;Rejet;1;0.450;3.0;2.5294117647058822;0.764;6.0
SFinalTrip_25_F_2019130;F;25;Description;Filtrage passe bas;8;4;Groupe_F003_Chicago;Distracteur;F003Chicago_F021;s;Rejet;1;0.260;5.0;5.235294117647059;0.792;1.0
SFinalTrip_25_F_2019130;F;25;Description;Filtrage passe bas;8;5;Groupe_F003_Chicago;Distracteur;F003Chicago_F009;s;Rejet;1;0.034;2.0;2.588235294117647;0.785;5.0
SFinalTrip_25_F_2019130;F;25;Description;Filtrage passe bas;8;6;Groupe_F003_Chicago;Distracteur;F003Chicago_F211;s;Rejet;1;0.414;1.0;1.1764705882352942;0.776;7.0
SFinalTrip_25_F_2019130;F;25;Description;Filtrage passe bas;8;7;Groupe_F003_Chicago;Distracteur;F003Chicago_F035;s;Rejet;1;0.333;4.0;3.588235294117647;0.762;3.0
SFinalTrip_25_F_2019130;F;25;Description;Filtrage passe bas;8;8;Groupe_F003_Chicago;Distracteur;F003Chicago_F036;s;Rejet;1;1.287;1.0;0.8823529411764706;0.796;9.0
SFinalTrip_25_F_2019130;F;25;Description;Filtrage passe bas;8;9;Groupe_F003_Chicago;Distracteur;F003Chicago_F221;s;Rejet;1;0.690;2.0;2.588235294117647;0.776;4.0
SFinalTrip_25_F_2019130;F;25;Description;Filtrage passe bas;8;10;Groupe_F003_Chicago;Distracteur;F003Chicago_F031;s;Rejet;1;0.297;6.0;4.647058823529412;0.762;2.0
SFinalTrip_25_F_2019130;F;25;Description;Filtrage passe bas;9;1;Groupe_F107_Chicago;Distracteur;F107Chicago_F220;s;Rejet;1;1.390;4.0;3.4705882352941178;0.899;4.0
SFinalTrip_25_F_2019130;F;25;Description;Filtrage passe bas;9;2;Groupe_F107_Chicago;Distracteur;F107Chicago_F215;s;Rejet;1;0.710;2.0;2.3529411764705883;0.908;9.0
SFinalTrip_25_F_2019130;F;25;Description;Filtrage passe bas;9;3;Groupe_F107_Chicago;Distracteur;F107Chicago_F012;s;Rejet;1;0.710;2.0;2.823529411764706;0.904;6.0
SFinalTrip_25_F_2019130;F;25;Description;Filtrage passe bas;9;4;Groupe_F107_Chicago;Distracteur;F107Chicago_F245;s;Rejet;1;0.464;2.0;3.0588235294117645;0.903;5.0
SFinalTrip_25_F_2019130;F;25;Description;Filtrage passe bas;9;5;Groupe_F107_Chicago;Distracteur;F107Chicago_F205;s;Rejet;1;0.614;2.0;2.6470588235294117;0.908;7.0
SFinalTrip_25_F_2019130;F;25;Description;Filtrage passe bas;9;6;Groupe_F107_Chicago;Distracteur;F107Chicago_F238;s;Rejet;1;0.570;4.0;3.588235294117647;0.896;3.0
SFinalTrip_25_F_2019130;F;25;Description;Filtrage passe bas;9;7;Groupe_F107_Chicago;Cible;F107Chicago_F107;k;Hit;1;1.450;;;;
SFinalTrip_25_F_2019130;F;25;Description;Filtrage passe bas;9;8;Groupe_F107_Chicago;Distracteur;F107Chicago_F206;s;Rejet;1;0.580;4.0;4.470588235294118;0.909;1.0
SFinalTrip_25_F_2019130;F;25;Description;Filtrage passe bas;9;9;Groupe_F107_Chicago;Distracteur;F107Chicago_F212;s;Rejet;1;0.448;2.0;2.4705882352941178;0.903;8.0
SFinalTrip_25_F_2019130;F;25;Description;Filtrage passe bas;9;10;Groupe_F107_Chicago;Distracteur;F107Chicago_F015;s;Rejet;1;0.390;5.0;3.9411764705882355;0.906;2.0
SFinalTrip_25_F_2019130;F;25;Description;Filtrage passe bas;10;1;Groupe_F248_Chicago;Distracteur;F248Chicago_F037;s;Rejet;1;0.880;3.0;2.9411764705882355;0.875;4.0
SFinalTrip_25_F_2019130;F;25;Description;Filtrage passe bas;10;2;Groupe_F248_Chicago;Distracteur;F248Chicago_F247;s;Rejet;1;0.848;3.0;3.235294117647059;0.855;3.0
SFinalTrip_25_F_2019130;F;25;Description;Filtrage passe bas;10;3;Groupe_F248_Chicago;Distracteur;F248Chicago_F230;s;Rejet;1;0.630;1.0;1.8823529411764706;0.885;7.0
SFinalTrip_25_F_2019130;F;25;Description;Filtrage passe bas;10;4;Groupe_F248_Chicago;Distracteur;F248Chicago_F203;s;Rejet;1;0.420;3.0;3.9411764705882355;0.878;2.0
SFinalTrip_25_F_2019130;F;25;Description;Filtrage passe bas;10;5;Groupe_F248_Chicago;Distracteur;F248Chicago_F217;s;Rejet;1;0.490;1.0;1.2941176470588236;0.874;9.0
SFinalTrip_25_F_2019130;F;25;Description;Filtrage passe bas;10;6;Groupe_F248_Chicago;Distracteur;F248Chicago_F022;k;FR;0;0.601;3.0;2.8823529411764706;0.867;5.0
SFinalTrip_25_F_2019130;F;25;Description;Filtrage passe bas;10;7;Groupe_F248_Chicago;Distracteur;F248Chicago_F249;s;Rejet;1;0.368;4.0;4.0;0.872;1.0
SFinalTrip_25_F_2019130;F;25;Description;Filtrage passe bas;10;8;Groupe_F248_Chicago;Cible;F248Chicago_F248;k;Hit;1;0.528;;;;
SFinalTrip_25_F_2019130;F;25;Description;Filtrage passe bas;10;9;Groupe_F248_Chicago;Distracteur;F248Chicago_F222;s;Rejet;1;0.330;2.0;1.9411764705882353;0.863;6.0
SFinalTrip_25_F_2019130;F;25;Description;Filtrage passe bas;10;10;Groupe_F248_Chicago;Distracteur;F248Chicago_F232;s;Rejet;1;0.390;1.0;1.411764705882353;0.872;8.0
