Windows 10 Famille 2018, version 1803 

HP Pavilion x360 
Intel Core i3-7100U CPU, 2.40 GHz 8 Go
Processeur x64
Résolution 1366*768

PsychoPy v3.0.0b11

Python 2.7.9 (utilisation PsychoPy), pip 9.0.3
Python 3.6.5 (version courante)

